Introduction à R pour Épidémiologie appliquée
…
# group\_by() et summarise()

``` r
surv %>% 
  group_by(hopital)
```

Aucun changement perceptible dans l'ensemble de données *jusqu'à ce que* un autre {dplyr} jusqu'à ce qu'une autre fonction soit appliquée.

--

Si elle est imprimée, la `Groups:` sont listés au-dessus des données.

```
## # A tibble: 636 × 29
## # Groups:   hopital [6]
##    cas_id date_symptomes date_notification diff   sexe    age unite_age age_ans
##    <chr>  <date>         <date>            <drtn> <chr> <dbl> <chr>       <dbl>
##  1 86340d 2014-10-30     2014-10-31        1 days femme     1 ans             1
##  2 92d002 2014-08-16     2014-08-20        4 days femme    16 ans            16
##  3 544bd1 2014-08-29     2014-08-30        1 days femme    10 ans            10
##  4 6056ba 2014-10-20     2014-10-21        1 days femme     0 ans             0
##  5 eb5aeb 2014-10-28     2014-11-01        4 days femme     8 ans             8
##  6 e64e04 2014-10-06     2014-10-10        4 days femme     7 ans             7
##  7 5a65bb 2014-09-21     2014-09-22        1 days homme     4 ans             4
##  8 2ae019 2014-05-06     2014-05-11        5 days homme    37 ans            37
##  9 7ca4c0 2014-09-29     2014-09-30        1 days homme    11 ans            11
## 10 699d82 2014-11-27     2014-11-28        1 days homme    27 ans            27
## # ℹ 626 more rows
## # ℹ 21 more variables: age_cat <fct>, hopital <chr>, district <chr>,
## #   district_res <chr>, district_not <chr>, deplace <lgl>, pd_kg <int>, ht_cm <int>,
## #   fievre <chr>, frissons <chr>, toux <chr>, douleurs <chr>, vomir <chr>,
## #   temp <dbl>, imc <dbl>, admin3pcod <chr>, lab_confirme <lgl>, lat <dbl>,
## #   lon <dbl>, epilink <chr>, def_cas <chr>
```
…
