Introducción a R para Epidemiología Aplicada
…
## group_by() y summarise()

``` r
vig %>% 
  group_by(hospital)
```

No se observan cambios perceptibles en la base de datos hasta que se aplique otra función {dplyr}.

--

Si se presenta, La entrada `Groups:` aparece encima de los datos.

```
## # A tibble: 636 × 29
## # Groups:   hospital [6]
##    id_caso difer  sexo    edad unidad_edad edad_anios edad_cat
##    <chr>   <drtn> <chr>  <dbl> <chr>            <dbl> <fct>   
##  1 86340d  1 days mujer      1 anios                1 0-9     
##  2 92d002  4 days mujer     16 anios               16 10-19   
##  3 544bd1  1 days mujer     10 anios               10 10-19   
##  4 6056ba  1 days mujer      0 anios                0 0-9     
##  5 eb5aeb  4 days mujer      8 anios                8 0-9     
##  6 e64e04  4 days mujer      7 anios                7 0-9     
##  7 5a65bb  1 days hombre     4 anios                4 0-9     
##  8 2ae019  5 days hombre    37 anios               37 30-39   
##  9 7ca4c0  1 days hombre    11 anios               11 10-19   
## 10 699d82  1 days hombre    27 anios               27 20-29   
## # ℹ 626 more rows
## # ℹ 22 more variables: hospital <chr>, distrito <chr>,
## #   distrito_res <chr>, distrito_not <chr>, translado <lgl>,
## #   fecha_sintomas <date>, peso_kg <int>, alt_cm <int>,
## #   fiebre <chr>, escalofrios <chr>, tos <chr>, dolor <chr>,
## #   vomito <chr>, temp <dbl>, imc <dbl>, admin3pcod <chr>,
## #   lab_conferma <lgl>, fecha_notifica <date>, lat <dbl>, …
```
…
