Introduction to GIS in R
…
```r
# import shapefile
shapefile <- read_sf(
  # file path to shape file
  here("data", "ebola","admin_boundaries", "sle_adm3.shp")) %>% 
  clean_names()  
```

```
## Simple feature collection with 167 features and 19 fields
## Geometry type: MULTIPOLYGON
## Dimension:     XY
## Bounding box:  xmin: -13.30901 ymin: 6.923379 xmax: -10.27056 ymax: 9.999253
*## Geodetic CRS:  WGS 84
## # A tibble: 167 × 20
##    objectid admin3name   admin3pcod admin3ref_n admin2name admin2pcod admin1name
##       <dbl> <chr>        <chr>      <chr>       <chr>      <chr>      <chr>     
##  1        1 Yakemu Kpuk… SL030412   Yakemu Kpu… Pujehun    SL0304     Southern  
##  2        2 Koya         SL020412   Koya        Port Loko  SL0204     Northern  
##  3        3 Bureh Kasse… SL020401   Bureh Kass… Port Loko  SL0204     Northern  
##  4        4 Panga Kabon… SL030404   Panga Kabo… Pujehun    SL0304     Southern  
##  5        5 Galliness P… SL030402   Galliness … Pujehun    SL0304     Southern  
##  6        6 Kpaka        SL030403   Kpaka       Pujehun    SL0304     Southern  
##  7        7 Bum          SL030202   Bum         Bonthe     SL0302     Southern  
##  8        8 Komboya      SL030109   Komboya     Bo         SL0301     Southern  
##  9        9 Valunia      SL030114   Valunia     Bo         SL0301     Southern  
## 10       10 Barri        SL030401   Barri       Pujehun    SL0304     Southern  
## # ℹ 157 more rows
## # ℹ 13 more variables: admin1pcod <chr>, admin0name <chr>, admin0pcod <chr>,
## #   date <date>, valid_on <date>, valid_to <date>, shape_leng <dbl>,
## #   shape_area <dbl>, rowcacode0 <chr>, rowcacode1 <chr>, rowcacode2 <chr>,
## #   rowcacode3 <chr>, geometry <MULTIPOLYGON [°]>
```
…
# Changing the CRS

```r
# transform shapefile to different CRS format
shapefile <- st_transform(shapefile, crs = 3857)
```

```
## Simple feature collection with 167 features and 19 fields
## Geometry type: MULTIPOLYGON
## Dimension:     XY
## Bounding box:  xmin: -1481552 ymin: 772589.5 xmax: -1143313 ymax: 1118806
*## Projected CRS: WGS 84 / Pseudo-Mercator
## # A tibble: 167 × 20
##    objectid admin3name   admin3pcod admin3ref_n admin2name admin2pcod admin1name
##  *    <dbl> <chr>        <chr>      <chr>       <chr>      <chr>      <chr>     
##  1        1 Yakemu Kpuk… SL030412   Yakemu Kpu… Pujehun    SL0304     Southern  
##  2        2 Koya         SL020412   Koya        Port Loko  SL0204     Northern  
##  3        3 Bureh Kasse… SL020401   Bureh Kass… Port Loko  SL0204     Northern  
##  4        4 Panga Kabon… SL030404   Panga Kabo… Pujehun    SL0304     Southern  
##  5        5 Galliness P… SL030402   Galliness … Pujehun    SL0304     Southern  
##  6        6 Kpaka        SL030403   Kpaka       Pujehun    SL0304     Southern  
##  7        7 Bum          SL030202   Bum         Bonthe     SL0302     Southern  
##  8        8 Komboya      SL030109   Komboya     Bo         SL0301     Southern  
##  9        9 Valunia      SL030114   Valunia     Bo         SL0301     Southern  
## 10       10 Barri        SL030401   Barri       Pujehun    SL0304     Southern  
## # ℹ 157 more rows
## # ℹ 13 more variables: admin1pcod <chr>, admin0name <chr>, admin0pcod <chr>,
## #   date <date>, valid_on <date>, valid_to <date>, shape_leng <dbl>,
## #   shape_area <dbl>, rowcacode0 <chr>, rowcacode1 <chr>, rowcacode2 <chr>,
## #   rowcacode3 <chr>, geometry <MULTIPOLYGON [m]>
```
…
