Introduction to R for Applied Epidemiology
…
``` r
surv %>% 
  group_by(hospital)
```

No perceptible change to the dataset *until* another {dplyr} function is applied.  

--

If printed, the `Groups:` are listed above the data.

```
## # A tibble: 636 × 29
## # Groups:   hospital [6]
##    case_id date_onset date_report diff   sex      age age_unit
##    <chr>   <date>     <date>      <drtn> <chr>  <dbl> <chr>   
##  1 86340d  2014-10-30 2014-10-31  1 days female     1 years   
##  2 92d002  2014-08-16 2014-08-20  4 days female    16 years   
##  3 544bd1  2014-08-29 2014-08-30  1 days female    10 years   
##  4 6056ba  2014-10-20 2014-10-21  1 days female     0 years   
##  5 eb5aeb  2014-10-28 2014-11-01  4 days female     8 years   
##  6 e64e04  2014-10-06 2014-10-10  4 days female     7 years   
##  7 5a65bb  2014-09-21 2014-09-22  1 days male       4 years   
##  8 2ae019  2014-05-06 2014-05-11  5 days male      37 years   
##  9 7ca4c0  2014-09-29 2014-09-30  1 days male      11 years   
## 10 699d82  2014-11-27 2014-11-28  1 days male      27 years   
## # ℹ 626 more rows
## # ℹ 22 more variables: age_years <dbl>, age_cat <fct>,
## #   hospital <chr>, district <chr>, district_res <chr>,
## #   district_det <chr>, moved <lgl>, wt_kg <int>, ht_cm <int>,
## #   fever <chr>, chills <chr>, cough <chr>, aches <chr>,
## #   vomit <chr>, temp <dbl>, bmi <dbl>, admin3pcod <chr>,
## #   lab_confirmed <lgl>, lat <dbl>, lon <dbl>, epilink <chr>, …
```
…
