Introduction to R for Applied Epidemiology
…
```r
surv %>% 
  group_by(hospital)
```

No hay cambios perceptibles en el conjunto de datos *hasta* que se aplica otra función {dplyr}.  

--

Si se retorna, los `Grupos:` aparecen encima de los datos.

```
## # A tibble: 539 × 29
## # Groups:   hospital [6]
##    case_id date_onset date_rep…¹ diff  gender   age age_u…² age_y…³
##    <chr>   <date>     <date>     <drt> <chr>  <dbl> <chr>     <dbl>
##  1 86340d  2014-10-30 2014-10-31  1 d… female     1 years         1
##  2 92d002  2014-08-16 2014-08-20  4 d… female    16 years        16
##  3 544bd1  2014-08-29 2014-08-30  1 d… female    10 years        10
##  4 6056ba  2014-10-20 2014-10-21  1 d… female     0 years         0
##  5 e64e04  2014-10-06 2014-10-10  4 d… female     7 years         7
##  6 5a65bb  2014-09-21 2014-09-22  1 d… male       4 years         4
##  7 2ae019  2014-05-06 2014-05-11  5 d… male      37 years        37
##  8 7ca4c0  2014-09-29 2014-09-30  1 d… male      11 years        11
##  9 30af4f  NA         2014-11-10 NA d… female     6 years         6
## 10 a06123  2014-09-10 2014-09-15  5 d… male      10 years        10
## # … with 529 more rows, 21 more variables: age_cat <fct>,
## #   hospital <chr>, district <chr>, district_res <chr>,
## #   district_det <chr>, moved <lgl>, wt_kg <int>, ht_cm <int>,
## #   fever <chr>, chills <chr>, cough <chr>, aches <chr>,
## #   vomit <chr>, temp <dbl>, bmi <dbl>, admin3pcod <chr>,
## #   lab_confirmed <lgl>, lat <dbl>, lon <dbl>, epilink <chr>,
## #   case_def <chr>, and abbreviated variable names ¹​date_report, …
```
…
