Introduction to R for Applied Epidemiology
…
```
## Simple feature collection with 48 features and 4 fields
## Geometry type: MULTIPOLYGON
## Dimension:     XY
## Bounding box:  xmin: 2087952 ymin: 1274336 xmax: 2317492 ymax: 1522856
*## Projected CRS: NAD83 / Georgia West (ftUS)
## # A tibble: 48 x 5
##    ZipCode SHAPE_Leng  SHAPE_Area Population                                                                                geometry
##    <chr>        <dbl>       <dbl>      <dbl>                                                         <MULTIPOLYGON [US_survey_foot]>
##  1 30304        3578.     874668.          0 (((2228175 1327979, 2227998 1327860, 2227928 1327925, 2227705 1328261, 2227427 13284...
##  2 30098        6187.    2071539.        118 (((2297621 1477003, 2296953 1476974, 2297100 1477318, 2297169 1477465, 2297218 14775...
##  3 30291      123056.  271391984.      20835 (((2193467 1298536, 2192364 1298065, 2192170 1296991, 2189781 1296650, 2189841 12958...
##  4 30268      294091. 1729387442.       7729 (((2121821 1318505, 2122024 1317567, 2122496 1316385, 2122541 1315850, 2122695 13157...
##  5 30305       87773.  187624264.      29220 (((2233900 1400489, 2233914 1399920, 2234194 1399945, 2234281 1399875, 2234564 13994...
##  6 30213      375869. 1801881966.      39840 (((2151675 1332989, 2151274 1332205, 2150956 1331852, 2150099 1331680, 2147987 13308...
##  7 30092       17665.    2769444.          0 (((2278083 1456502, 2278075 1456499, 2278048 1456498, 2278010 1456495, 2277974 14564...
##  8 30024       33262.   30183784.        299 (((2300742 1476746, 2300594 1476793, 2300490 1476842, 2300566 1476813, 2300742 14767...
##  9 30097      124207.  336153806.      26791 (((2295375 1480030, 2295462 1480000, 2295886 1479853, 2296075 1479790, 2296150 14797...
## 10 30022      169357.  673419811.      69893 (((2286054 1475364, 2286025 1475138, 2285791 1475009, 2285374 1475035, 2284582 14750...
## # ... with 38 more rows
```
…
---
# Changing the CRS 

```r
# change shapefile coordinate reference system to WGS84
shapefile <- st_transform(shapefile, crs = 4326)
```

```
## Simple feature collection with 48 features and 4 fields
## Geometry type: MULTIPOLYGON
## Dimension:     XY
## Bounding box:  xmin: -84.85116 ymin: 33.5025 xmax: -84.09764 ymax: 34.1862
*## Geodetic CRS:  WGS 84
## # A tibble: 48 x 5
##    ZipCode SHAPE_Leng  SHAPE_Area Population                                                                                geometry
##  * <chr>        <dbl>       <dbl>      <dbl>                                                                      <MULTIPOLYGON [°]>
##  1 30304        3578.     874668.          0 (((-84.39147 33.65054, -84.39205 33.65021, -84.39228 33.65039, -84.39302 33.65132, -...
##  2 30098        6187.    2071539.        118 (((-84.16324 34.0603, -84.16545 34.06022, -84.16496 34.06116, -84.16473 34.06157, -8...
##  3 30291      123056.  271391984.      20835 (((-84.50521 33.56937, -84.50882 33.56806, -84.50945 33.56511, -84.51729 33.56415, -...
##  4 30268      294091. 1729387442.       7729 (((-84.74079 33.62338, -84.7401 33.6208, -84.73853 33.61756, -84.73837 33.61609, -84...
##  5 30305       87773.  187624264.      29220 (((-84.37313 33.84985, -84.37308 33.84829, -84.37216 33.84836, -84.37187 33.84817, -...
##  6 30213      375869. 1801881966.      39840 (((-84.64293 33.6636, -84.64424 33.66144, -84.64528 33.66047, -84.64809 33.65998, -8...
##  7 30092       17665.    2769444.          0 (((-84.22771 34.00394, -84.22774 34.00394, -84.22783 34.00393, -84.22796 34.00392, -...
##  8 30024       33262.   30183784.        299 (((-84.15294 34.05959, -84.15342 34.05972, -84.15377 34.05985, -84.15351 34.05977, -...
##  9 30097      124207.  336153806.      26791 (((-84.17066 34.06862, -84.17037 34.06853, -84.16897 34.06813, -84.16835 34.06796, -...
## 10 30022      169357.  673419811.      69893 (((-84.20143 34.05579, -84.20153 34.05517, -84.2023 34.05481, -84.20367 34.05488, -8...
## # ... with 38 more rows
```
…
