Introduction to R for Applied Epidemiology
…
```r
surv %>% 
  group_by(hospital)
```

Жодних видимих змін у наборі даних, *поки* не буде застосовано іншу функцію {dplyr}.  

--

Під час друку `Groups:` перераховуються над даними.

```
## # A tibble: 539 × 29
## # Groups:   hospital [6]
##    case_id date_onset date_report diff    gender   age age_u…¹ age_y…² age_cat
##    <chr>   <date>     <date>      <drtn>  <chr>  <dbl> <chr>     <dbl> <fct>  
##  1 86340d  2014-10-30 2014-10-31   1 days female     1 years         1 0-9    
##  2 92d002  2014-08-16 2014-08-20   4 days female    16 years        16 10-19  
##  3 544bd1  2014-08-29 2014-08-30   1 days female    10 years        10 10-19  
##  4 6056ba  2014-10-20 2014-10-21   1 days female     0 years         0 0-9    
##  5 e64e04  2014-10-06 2014-10-10   4 days female     7 years         7 0-9    
##  6 5a65bb  2014-09-21 2014-09-22   1 days male       4 years         4 0-9    
##  7 2ae019  2014-05-06 2014-05-11   5 days male      37 years        37 30-39  
##  8 7ca4c0  2014-09-29 2014-09-30   1 days male      11 years        11 10-19  
##  9 30af4f  NA         2014-11-10  NA days female     6 years         6 0-9    
## 10 a06123  2014-09-10 2014-09-15   5 days male      10 years        10 10-19  
## # … with 529 more rows, 20 more variables: hospital <chr>, district <chr>,
## #   district_res <chr>, district_det <chr>, moved <lgl>, wt_kg <int>,
## #   ht_cm <int>, fever <chr>, chills <chr>, cough <chr>, aches <chr>,
## #   vomit <chr>, temp <dbl>, bmi <dbl>, admin3pcod <chr>,
## #   lab_confirmed <lgl>, lat <dbl>, lon <dbl>, epilink <chr>, case_def <chr>,
## #   and abbreviated variable names ¹​age_unit, ²​age_years
```
…
