Introduction to R for Applied Epidemiology
…
```r
surv %>% 
  group_by(hospital)
```

No perceptible change to the dataset *until* another {dplyr} function is applied.  

--

If printed, the `Groups:` are listed above the data.

```
## # A tibble: 663 x 27
## # Groups:   hospital [6]
##    case_id date_onset gender   age age_unit hospital wt_kg ht_cm fever chills cough aches vomit  temp   bmi district_res admin3pcod district_det case_def date_report week_onset week_report
##    <chr>   <date>     <chr>  <dbl> <chr>    <chr>    <int> <int> <chr> <chr>  <chr> <chr> <chr> <dbl> <dbl> <chr>        <chr>      <chr>        <chr>    <date>      <date>     <date>     
##  1 86340d  2014-10-30 female     1 years    Port Ho~    18    29 yes   no     yes   no    no     39.4 214.  Mountain Ru~ SL040102   Mountain Ru~ Confirm~ 2014-10-31  2014-10-27 2014-10-27 
##  2 92d002  2014-08-16 female    16 years    <NA>        59   133 yes   no     yes   no    yes    39.3  33.4 Mountain Ru~ SL040102   Mountain Ru~ Confirm~ 2014-08-20  2014-08-11 2014-08-18 
##  3 544bd1  2014-08-29 female    10 years    <NA>        39   106 yes   no     yes   no    yes    39.3  34.7 East II      SL040204   East II      Confirm~ 2014-08-30  2014-08-25 2014-08-25 
##  4 6056ba  2014-10-20 female     0 years    <NA>        NA    24 yes   yes    yes   no    yes    38.6  NA   West III     SL040208   West III     Confirm~ 2014-10-21  2014-10-20 2014-10-20 
##  5 eb5aeb  2014-10-28 female     8 years    Port Ho~    34   104 yes   no     yes   no    yes    38.2  31.4 West III     SL040208   West III     Confirm~ 2014-11-01  2014-10-27 2014-10-27 
##  6 e64e04  2014-10-06 female     7 years    <NA>        32    91 no    no     yes   yes   yes    36.5  38.6 Mountain Ru~ SL040102   Mountain Ru~ Confirm~ 2014-10-10  2014-10-06 2014-10-06 
##  7 5a65bb  2014-09-21 male       4 years    Port Ho~    41    74 yes   yes    yes   no    yes    39.1  74.9 Mountain Ru~ SL040102   Mountain Ru~ Confirm~ 2014-09-22  2014-09-15 2014-09-22 
##  8 2ae019  2014-05-06 male      37 years    Other       81   167 yes   no     yes   no    no     39.5  29.0 West III     SL040208   West III     Confirm~ 2014-05-11  2014-05-05 2014-05-05 
##  9 7ca4c0  2014-09-29 male      11 years    Port Ho~    56   163 yes   no     yes   no    no     38.9  21.1 West III     SL040208   West III     Confirm~ 2014-09-30  2014-09-29 2014-09-29 
## 10 699d82  2014-11-27 male      27 years    Port Ho~    76   178 yes   yes    yes   no    no     39.4  24.0 Mountain Ru~ SL040102   Mountain Ru~ Confirm~ 2014-11-28  2014-11-24 2014-11-24 
## # ... with 653 more rows, and 5 more variables: diff <drtn>, age_years <dbl>, age_cat <fct>, moved <lgl>, district <chr>
```
…
