Introdução ao R para Epidemiologia aplicada
…
# group\_by() e summarise()

``` r
vig %>% 
  group_by(hospital)
```

Nenhuma alteração perceptível no conjunto de dados *até que* outra função {dplyr} seja aplicada.

--

Se impresso, o `Groups:` são listados acima dos dados.

```
## # A tibble: 636 × 29
## # Groups:   hospital [6]
##    id_caso data_inicio_sintomas data_notificacao dif   sexo  idade unidade_idade
##    <chr>   <date>               <date>           <drt> <chr> <dbl> <chr>        
##  1 86340d  2014-10-30           2014-10-31       1 da… femi…     1 anos         
##  2 92d002  2014-08-16           2014-08-20       4 da… femi…    16 anos         
##  3 544bd1  2014-08-29           2014-08-30       1 da… femi…    10 anos         
##  4 6056ba  2014-10-20           2014-10-21       1 da… femi…     0 anos         
##  5 eb5aeb  2014-10-28           2014-11-01       4 da… femi…     8 anos         
##  6 e64e04  2014-10-06           2014-10-10       4 da… femi…     7 anos         
##  7 5a65bb  2014-09-21           2014-09-22       1 da… masc…     4 anos         
##  8 2ae019  2014-05-06           2014-05-11       5 da… masc…    37 anos         
##  9 7ca4c0  2014-09-29           2014-09-30       1 da… masc…    11 anos         
## 10 699d82  2014-11-27           2014-11-28       1 da… masc…    27 anos         
## # ℹ 626 more rows
## # ℹ 22 more variables: idade_anos <dbl>, faixa_etaria <fct>, hospital <chr>,
## #   distrito <chr>, distrito_res <chr>, distrito_not <chr>, dif_distrito <lgl>,
## #   peso_kg <int>, altura_cm <int>, febre <chr>, calafrios <chr>, tosse <chr>,
## #   dores <chr>, vomito <chr>, temp <dbl>, imc <dbl>, admin3pcod <chr>,
## #   lab_confirmado <lgl>, lat <dbl>, lon <dbl>, epilink <chr>, def_caso <chr>
```
…
