Introduction to R for Applied Epidemiology
…
```r
surv %>% 
  group_by(hospital)
```

No perceptible change to the dataset *until* another {dplyr} function is applied.  

--

If printed, the `Groups:` are listed above the data.

```
## # A tibble: 539 × 29
## # Groups:   hospital [6]
##    case_id date_onset date_report diff    gender   age age_u…¹ age_y…² age_cat hospi…³ distr…⁴ distr…⁵ distr…⁶ moved wt_kg ht_cm
##    <chr>   <date>     <date>      <drtn>  <chr>  <dbl> <chr>     <dbl> <fct>   <chr>   <chr>   <chr>   <chr>   <lgl> <int> <int>
##  1 86340d  2014-10-30 2014-10-31   1 days female     1 years         1 0-9     Port H… Mounta… Mounta… Mounta… FALSE    18    29
##  2 92d002  2014-08-16 2014-08-20   4 days female    16 years        16 10-19   <NA>    Mounta… Mounta… Mounta… FALSE    59   133
##  3 544bd1  2014-08-29 2014-08-30   1 days female    10 years        10 10-19   <NA>    East II East II East II FALSE    39   106
##  4 6056ba  2014-10-20 2014-10-21   1 days female     0 years         0 0-9     <NA>    West I… West I… West I… FALSE    NA    24
##  5 e64e04  2014-10-06 2014-10-10   4 days female     7 years         7 0-9     <NA>    Mounta… Mounta… Mounta… FALSE    32    91
##  6 5a65bb  2014-09-21 2014-09-22   1 days male       4 years         4 0-9     Port H… Mounta… Mounta… Mounta… FALSE    41    74
##  7 2ae019  2014-05-06 2014-05-11   5 days male      37 years        37 30-39   Other   West I… West I… West I… FALSE    81   167
##  8 7ca4c0  2014-09-29 2014-09-30   1 days male      11 years        11 10-19   Port H… West I… West I… West I… FALSE    56   163
##  9 30af4f  NA         2014-11-10  NA days female     6 years         6 0-9     Port H… West I  West I  West I  FALSE    30    75
## 10 a06123  2014-09-10 2014-09-15   5 days male      10 years        10 10-19   <NA>    Mounta… Mounta… Mounta… FALSE    55   125
## # … with 529 more rows, 13 more variables: fever <chr>, chills <chr>, cough <chr>, aches <chr>, vomit <chr>, temp <dbl>,
## #   bmi <dbl>, admin3pcod <chr>, lab_confirmed <lgl>, lat <dbl>, lon <dbl>, epilink <chr>, case_def <chr>, and abbreviated
## #   variable names ¹​age_unit, ²​age_years, ³​hospital, ⁴​district, ⁵​district_res, ⁶​district_det
```
…
