Introducción a R para Epidemiología Aplicada
…
# group\_by() y resumir()

```r
surv %>% 
  group_by(hospital)
```

No hay cambios perceptibles en el conjunto de datos *hasta* otro {dplyr} función.

--

Si se imprime, el `Groups:` aparecen encima de los datos.

```
## # A tibble: 636 × 29
## # Groups:   hospital [6]
##    case_id date_onset date_report diff   sex      age age_unit age_years age_cat
##    <chr>   <date>     <date>      <drtn> <chr>  <dbl> <chr>        <dbl> <fct>  
##  1 86340d  2014-10-30 2014-10-31  1 days female     1 years            1 0-9    
##  2 92d002  2014-08-16 2014-08-20  4 days female    16 years           16 10-19  
##  3 544bd1  2014-08-29 2014-08-30  1 days female    10 years           10 10-19  
##  4 6056ba  2014-10-20 2014-10-21  1 days female     0 years            0 0-9    
##  5 eb5aeb  2014-10-28 2014-11-01  4 days female     8 years            8 0-9    
##  6 e64e04  2014-10-06 2014-10-10  4 days female     7 years            7 0-9    
##  7 5a65bb  2014-09-21 2014-09-22  1 days male       4 years            4 0-9    
##  8 2ae019  2014-05-06 2014-05-11  5 days male      37 years           37 30-39  
##  9 7ca4c0  2014-09-29 2014-09-30  1 days male      11 years           11 10-19  
## 10 699d82  2014-11-27 2014-11-28  1 days male      27 years           27 20-29  
## # ℹ 626 more rows
## # ℹ 20 more variables: hospital <chr>, district <chr>, district_res <chr>,
## #   district_det <chr>, moved <lgl>, wt_kg <int>, ht_cm <int>, fever <chr>,
## #   chills <chr>, cough <chr>, aches <chr>, vomit <chr>, temp <dbl>, bmi <dbl>,
## #   admin3pcod <chr>, lab_confirmed <lgl>, lat <dbl>, lon <dbl>, epilink <chr>,
## #   case_def <chr>
```
…
